Das Experiment
…
## Schritt 1: Unterschiede untersuchen

count: false

.panel1-balancing-auto[

```r
*thp
```
]
 
.panel2-balancing-auto[

```
# A tibble: 1,203 × 394
   newid interviewer    uc grandmother employed_mo income_mo income_hh genhealth
   <dbl>       <dbl> <dbl> <chr>       <chr>           <dbl> <chr>     <chr>    
 1    NA          NA     1 <NA>        <NA>               NA <NA>      <NA>     
 2   226           1     1 No          No                  0 60        Very good
 3   222           6     1 Yes         No                  0 200       Moderate 
 4     3           1     1 No          No                  0 150       Good     
 5   217           3     1 No          No                  0 250       0        
 6   354           1     1 Yes         No                  0 110       Very good
 7    NA          NA     1 <NA>        <NA>               NA <NA>      <NA>     
 8    NA          NA     1 <NA>        <NA>               NA <NA>      <NA>     
 9   225           4     1 No          No                  0 60        Very good
10     2           4     1 Yes         No                  0 60        Good     
# ℹ 1,193 more rows
# ℹ 386 more variables: edu_mo <dbl>, edu_fa <dbl>, ideal_no_kids <chr>,
#   no_kids_over5_dead <dbl>, no_kids_1_5_dead <dbl>, no_kids_less1_dead <dbl>,
#   mo_185 <chr>, mo_358 <chr>, mo_360 <chr>, c_wt <dbl>, c_ht <dbl>,
#   ch_27 <chr>, ch_28 <chr>, ch_29 <chr>, ch_30 <chr>, ch_31 <chr>,
#   ch_32 <chr>, ch_33 <chr>, ch_34 <chr>, ch_35 <chr>, ch_36 <chr>,
#   mo_ht <dbl>, mo_bmi <dbl>, hamd_baseline <dbl>, bdq_baseline <dbl>, …
```
…
---
count: false

.panel1-balancing-auto[

```r
thp %>%
* filter(THP_sample==1)
```
]
 
.panel2-balancing-auto[

```
# A tibble: 903 × 394
   newid interviewer    uc grandmother employed_mo income_mo income_hh genhealth
   <dbl>       <dbl> <dbl> <chr>       <chr>           <dbl> <chr>     <chr>    
 1    NA          NA     1 <NA>        <NA>               NA <NA>      <NA>     
 2   226           1     1 No          No                  0 60        Very good
 3     3           1     1 No          No                  0 150       Good     
 4   354           1     1 Yes         No                  0 110       Very good
 5    NA          NA     1 <NA>        <NA>               NA <NA>      <NA>     
 6    NA          NA     1 <NA>        <NA>               NA <NA>      <NA>     
 7   225           4     1 No          No                  0 60        Very good
 8     2           4     1 Yes         No                  0 60        Good     
 9   729           1     1 No          No                  0 65        Good     
10    NA          NA     1 <NA>        <NA>               NA <NA>      <NA>     
# ℹ 893 more rows
# ℹ 386 more variables: edu_mo <dbl>, edu_fa <dbl>, ideal_no_kids <chr>,
#   no_kids_over5_dead <dbl>, no_kids_1_5_dead <dbl>, no_kids_less1_dead <dbl>,
#   mo_185 <chr>, mo_358 <chr>, mo_360 <chr>, c_wt <dbl>, c_ht <dbl>,
#   ch_27 <chr>, ch_28 <chr>, ch_29 <chr>, ch_30 <chr>, ch_31 <chr>,
#   ch_32 <chr>, ch_33 <chr>, ch_34 <chr>, ch_35 <chr>, ch_36 <chr>,
#   mo_ht <dbl>, mo_bmi <dbl>, hamd_baseline <dbl>, bdq_baseline <dbl>, …
```
…
.panel1-balancing-auto[

```r
thp %>%
  filter(THP_sample==1) %>%
* select( treat, depressed_1y, age_baseline, kids_no, first_child, employed_mo_baseline, MIL, maternalgma, edu_fa_baseline, employed_fa_baseline)
```
]
 
.panel2-balancing-auto[

```
# A tibble: 903 × 10
   treat depressed_1y age_baseline kids_no first_child employed_mo_baseline
   <dbl>        <dbl>        <dbl>   <dbl>       <dbl>                <dbl>
 1     1            1           28       3           0                    0
 2     1            0           37       6           0                    0
 3     1            0           29       2           0                    0
 4     1            1           23       1           0                    0
 5     1            1           30       3           0                    0
 6     1            0           22       0           1                    0
 7     1            0           30       4           0                    0
 8     1            0           25       1           0                    0
 9     1            0           27       2           0                    0
10     1            0           26       2           0                    0
# ℹ 893 more rows
# ℹ 4 more variables: MIL <dbl>, maternalgma <dbl>, edu_fa_baseline <dbl>,
#   employed_fa_baseline <dbl>
```
…
.panel1-balancing-auto[

```r
thp %>%
  filter(THP_sample==1) %>%
  select( treat, depressed_1y, age_baseline, kids_no, first_child, employed_mo_baseline, MIL, maternalgma, edu_fa_baseline, employed_fa_baseline) %>%
* pivot_longer(cols = -treat, names_to = "variable", values_to = "value")
```
]
 
.panel2-balancing-auto[

```
# A tibble: 8,127 × 3
   treat variable             value
   <dbl> <chr>                <dbl>
 1     1 depressed_1y             1
 2     1 age_baseline            28
 3     1 kids_no                  3
 4     1 first_child              0
 5     1 employed_mo_baseline     0
 6     1 MIL                      1
 7     1 maternalgma              0
 8     1 edu_fa_baseline         10
 9     1 employed_fa_baseline     1
10     1 depressed_1y             0
# ℹ 8,117 more rows
```
…
## Schritt 2: Durchschnittliche Differenzen

count: false

.panel1-depressionen-auto[

```r
*thp
```
]
 
.panel2-depressionen-auto[

```
# A tibble: 1,203 × 394
   newid interviewer    uc grandmother employed_mo income_mo income_hh genhealth
   <dbl>       <dbl> <dbl> <chr>       <chr>           <dbl> <chr>     <chr>    
 1    NA          NA     1 <NA>        <NA>               NA <NA>      <NA>     
 2   226           1     1 No          No                  0 60        Very good
 3   222           6     1 Yes         No                  0 200       Moderate 
 4     3           1     1 No          No                  0 150       Good     
 5   217           3     1 No          No                  0 250       0        
 6   354           1     1 Yes         No                  0 110       Very good
 7    NA          NA     1 <NA>        <NA>               NA <NA>      <NA>     
 8    NA          NA     1 <NA>        <NA>               NA <NA>      <NA>     
 9   225           4     1 No          No                  0 60        Very good
10     2           4     1 Yes         No                  0 60        Good     
# ℹ 1,193 more rows
# ℹ 386 more variables: edu_mo <dbl>, edu_fa <dbl>, ideal_no_kids <chr>,
#   no_kids_over5_dead <dbl>, no_kids_1_5_dead <dbl>, no_kids_less1_dead <dbl>,
#   mo_185 <chr>, mo_358 <chr>, mo_360 <chr>, c_wt <dbl>, c_ht <dbl>,
#   ch_27 <chr>, ch_28 <chr>, ch_29 <chr>, ch_30 <chr>, ch_31 <chr>,
#   ch_32 <chr>, ch_33 <chr>, ch_34 <chr>, ch_35 <chr>, ch_36 <chr>,
#   mo_ht <dbl>, mo_bmi <dbl>, hamd_baseline <dbl>, bdq_baseline <dbl>, …
```
…
---
count: false

.panel1-depressionen-auto[

```r
thp %>%
* select(treat, depressed_6m, depressed_1y, depressed)
```
]
 
.panel2-depressionen-auto[

```
# A tibble: 1,203 × 4
   treat depressed_6m depressed_1y depressed
   <dbl>        <dbl>        <dbl>     <dbl>
 1     1            0            1        NA
 2     1            0            0         0
 3     1           NA           NA         0
 4     1            0            0         0
 5     1           NA           NA         0
 6     1            1            1         0
 7     1            1            1        NA
 8     1            0            0        NA
 9     1            0            0         0
10     1            0            0         0
# ℹ 1,193 more rows
```
…
.panel1-depressionen-auto[

```r
thp %>%
  select(treat, depressed_6m, depressed_1y, depressed) %>%
* mutate(Baseline = 1)
```
]
 
.panel2-depressionen-auto[

```
# A tibble: 1,203 × 5
   treat depressed_6m depressed_1y depressed Baseline
   <dbl>        <dbl>        <dbl>     <dbl>    <dbl>
 1     1            0            1        NA        1
 2     1            0            0         0        1
 3     1           NA           NA         0        1
 4     1            0            0         0        1
 5     1           NA           NA         0        1
 6     1            1            1         0        1
 7     1            1            1        NA        1
 8     1            0            0        NA        1
 9     1            0            0         0        1
10     1            0            0         0        1
# ℹ 1,193 more rows
```
…
.panel1-depressionen-auto[

```r
thp %>%
  select(treat, depressed_6m, depressed_1y, depressed) %>%
  mutate(Baseline = 1) %>%
* pivot_longer( cols = -treat, names_to = "name", values_to = "depression")
```
]
 
.panel2-depressionen-auto[

```
# A tibble: 4,812 × 3
   treat name         depression
   <dbl> <chr>             <dbl>
 1     1 depressed_6m          0
 2     1 depressed_1y          1
 3     1 depressed            NA
 4     1 Baseline              1
 5     1 depressed_6m          0
 6     1 depressed_1y          0
 7     1 depressed             0
 8     1 Baseline              1
 9     1 depressed_6m         NA
10     1 depressed_1y         NA
# ℹ 4,802 more rows
```
…
.panel2-depressionen-auto[

```
# A tibble: 4,812 × 4
   treat name     depression treat_factor
   <dbl> <fct>         <dbl> <fct>       
 1     1 6 Monate          0 Treatment   
 2     1 1 Jahr            1 Treatment   
 3     1 7 Jahre          NA Treatment   
 4     1 Baseline          1 Treatment   
 5     1 6 Monate          0 Treatment   
 6     1 1 Jahr            0 Treatment   
 7     1 7 Jahre           0 Treatment   
 8     1 Baseline          1 Treatment   
 9     1 6 Monate         NA Treatment   
10     1 1 Jahr           NA Treatment   
# ℹ 4,802 more rows
```
…
## Schritt 2: Durchschnittliche Differenzen

count: false

.panel1-diffs-auto[

```r
*thp
```
]
 
.panel2-diffs-auto[

```
# A tibble: 1,203 × 394
   newid interviewer    uc grandmother employed_mo income_mo income_hh genhealth
   <dbl>       <dbl> <dbl> <chr>       <chr>           <dbl> <chr>     <chr>    
 1    NA          NA     1 <NA>        <NA>               NA <NA>      <NA>     
 2   226           1     1 No          No                  0 60        Very good
 3   222           6     1 Yes         No                  0 200       Moderate 
 4     3           1     1 No          No                  0 150       Good     
 5   217           3     1 No          No                  0 250       0        
 6   354           1     1 Yes         No                  0 110       Very good
 7    NA          NA     1 <NA>        <NA>               NA <NA>      <NA>     
 8    NA          NA     1 <NA>        <NA>               NA <NA>      <NA>     
 9   225           4     1 No          No                  0 60        Very good
10     2           4     1 Yes         No                  0 60        Good     
# ℹ 1,193 more rows
# ℹ 386 more variables: edu_mo <dbl>, edu_fa <dbl>, ideal_no_kids <chr>,
#   no_kids_over5_dead <dbl>, no_kids_1_5_dead <dbl>, no_kids_less1_dead <dbl>,
#   mo_185 <chr>, mo_358 <chr>, mo_360 <chr>, c_wt <dbl>, c_ht <dbl>,
#   ch_27 <chr>, ch_28 <chr>, ch_29 <chr>, ch_30 <chr>, ch_31 <chr>,
#   ch_32 <chr>, ch_33 <chr>, ch_34 <chr>, ch_35 <chr>, ch_36 <chr>,
#   mo_ht <dbl>, mo_bmi <dbl>, hamd_baseline <dbl>, bdq_baseline <dbl>, …
```
…
---
count: false

.panel1-diffs-auto[

```r
thp %>%
* filter(attrit2 == 0 & THP_sample == 1)
```
]
 
.panel2-diffs-auto[

```
# A tibble: 585 × 394
   newid interviewer    uc grandmother employed_mo income_mo income_hh genhealth
   <dbl>       <dbl> <dbl> <chr>       <chr>           <dbl> <chr>     <chr>    
 1   226           1     1 No          No                  0 60        Very good
 2     3           1     1 No          No                  0 150       Good     
 3   354           1     1 Yes         No                  0 110       Very good
 4   225           4     1 No          No                  0 60        Very good
 5     2           4     1 Yes         No                  0 60        Good     
 6   729           1     1 No          No                  0 65        Good     
 7   228           4     1 No          No                  0 300       0        
 8   180           4     1 No          No                  0 <NA>      Very good
 9   178           1     1 No          No                  0 60        Good     
10   224           7     1 Yes         No                  0 150       Good     
# ℹ 575 more rows
# ℹ 386 more variables: edu_mo <dbl>, edu_fa <dbl>, ideal_no_kids <chr>,
#   no_kids_over5_dead <dbl>, no_kids_1_5_dead <dbl>, no_kids_less1_dead <dbl>,
#   mo_185 <chr>, mo_358 <chr>, mo_360 <chr>, c_wt <dbl>, c_ht <dbl>,
#   ch_27 <chr>, ch_28 <chr>, ch_29 <chr>, ch_30 <chr>, ch_31 <chr>,
#   ch_32 <chr>, ch_33 <chr>, ch_34 <chr>, ch_35 <chr>, ch_36 <chr>,
#   mo_ht <dbl>, mo_bmi <dbl>, hamd_baseline <dbl>, bdq_baseline <dbl>, …
```
…
.panel1-diffs-auto[

```r
thp %>%
  filter(attrit2 == 0 & THP_sample == 1) %>%
* group_by(treat)
```
]
 
.panel2-diffs-auto[

```
# A tibble: 585 × 394
# Groups:   treat [2]
   newid interviewer    uc grandmother employed_mo income_mo income_hh genhealth
   <dbl>       <dbl> <dbl> <chr>       <chr>           <dbl> <chr>     <chr>    
 1   226           1     1 No          No                  0 60        Very good
 2     3           1     1 No          No                  0 150       Good     
 3   354           1     1 Yes         No                  0 110       Very good
 4   225           4     1 No          No                  0 60        Very good
 5     2           4     1 Yes         No                  0 60        Good     
 6   729           1     1 No          No                  0 65        Good     
 7   228           4     1 No          No                  0 300       0        
 8   180           4     1 No          No                  0 <NA>      Very good
 9   178           1     1 No          No                  0 60        Good     
10   224           7     1 Yes         No                  0 150       Good     
# ℹ 575 more rows
# ℹ 386 more variables: edu_mo <dbl>, edu_fa <dbl>, ideal_no_kids <chr>,
#   no_kids_over5_dead <dbl>, no_kids_1_5_dead <dbl>, no_kids_less1_dead <dbl>,
#   mo_185 <chr>, mo_358 <chr>, mo_360 <chr>, c_wt <dbl>, c_ht <dbl>,
#   ch_27 <chr>, ch_28 <chr>, ch_29 <chr>, ch_30 <chr>, ch_31 <chr>,
#   ch_32 <chr>, ch_33 <chr>, ch_34 <chr>, ch_35 <chr>, ch_36 <chr>,
#   mo_ht <dbl>, mo_bmi <dbl>, hamd_baseline <dbl>, bdq_baseline <dbl>, …
```
…
```r
thp %>%
  filter(attrit2 == 0 & THP_sample == 1) %>%
  group_by(treat) %>%
  summarize( dep6m_avg = round(mean(depressed_6m, na.rm = T), 3)) -> dep1

*thp
```
]
 
.panel2-diffs-auto[

```
# A tibble: 1,203 × 394
   newid interviewer    uc grandmother employed_mo income_mo income_hh genhealth
   <dbl>       <dbl> <dbl> <chr>       <chr>           <dbl> <chr>     <chr>    
 1    NA          NA     1 <NA>        <NA>               NA <NA>      <NA>     
 2   226           1     1 No          No                  0 60        Very good
 3   222           6     1 Yes         No                  0 200       Moderate 
 4     3           1     1 No          No                  0 150       Good     
 5   217           3     1 No          No                  0 250       0        
 6   354           1     1 Yes         No                  0 110       Very good
 7    NA          NA     1 <NA>        <NA>               NA <NA>      <NA>     
 8    NA          NA     1 <NA>        <NA>               NA <NA>      <NA>     
 9   225           4     1 No          No                  0 60        Very good
10     2           4     1 Yes         No                  0 60        Good     
# ℹ 1,193 more rows
# ℹ 386 more variables: edu_mo <dbl>, edu_fa <dbl>, ideal_no_kids <chr>,
#   no_kids_over5_dead <dbl>, no_kids_1_5_dead <dbl>, no_kids_less1_dead <dbl>,
#   mo_185 <chr>, mo_358 <chr>, mo_360 <chr>, c_wt <dbl>, c_ht <dbl>,
#   ch_27 <chr>, ch_28 <chr>, ch_29 <chr>, ch_30 <chr>, ch_31 <chr>,
#   ch_32 <chr>, ch_33 <chr>, ch_34 <chr>, ch_35 <chr>, ch_36 <chr>,
#   mo_ht <dbl>, mo_bmi <dbl>, hamd_baseline <dbl>, bdq_baseline <dbl>, …
```
…
```r
thp %>%
  filter(attrit2 == 0 & THP_sample == 1) %>%
  group_by(treat) %>%
  summarize( dep6m_avg = round(mean(depressed_6m, na.rm = T), 3)) -> dep1

thp %>%
* filter(attrit2 == 0 & THP_sample == 1)
```
]
 
.panel2-diffs-auto[

```
# A tibble: 585 × 394
   newid interviewer    uc grandmother employed_mo income_mo income_hh genhealth
   <dbl>       <dbl> <dbl> <chr>       <chr>           <dbl> <chr>     <chr>    
 1   226           1     1 No          No                  0 60        Very good
 2     3           1     1 No          No                  0 150       Good     
 3   354           1     1 Yes         No                  0 110       Very good
 4   225           4     1 No          No                  0 60        Very good
 5     2           4     1 Yes         No                  0 60        Good     
 6   729           1     1 No          No                  0 65        Good     
 7   228           4     1 No          No                  0 300       0        
 8   180           4     1 No          No                  0 <NA>      Very good
 9   178           1     1 No          No                  0 60        Good     
10   224           7     1 Yes         No                  0 150       Good     
# ℹ 575 more rows
# ℹ 386 more variables: edu_mo <dbl>, edu_fa <dbl>, ideal_no_kids <chr>,
#   no_kids_over5_dead <dbl>, no_kids_1_5_dead <dbl>, no_kids_less1_dead <dbl>,
#   mo_185 <chr>, mo_358 <chr>, mo_360 <chr>, c_wt <dbl>, c_ht <dbl>,
#   ch_27 <chr>, ch_28 <chr>, ch_29 <chr>, ch_30 <chr>, ch_31 <chr>,
#   ch_32 <chr>, ch_33 <chr>, ch_34 <chr>, ch_35 <chr>, ch_36 <chr>,
#   mo_ht <dbl>, mo_bmi <dbl>, hamd_baseline <dbl>, bdq_baseline <dbl>, …
```
…
thp %>%
  filter(attrit2 == 0 & THP_sample == 1) %>%
* group_by(treat)
```
]
 
.panel2-diffs-auto[

```
# A tibble: 585 × 394
# Groups:   treat [2]
   newid interviewer    uc grandmother employed_mo income_mo income_hh genhealth
   <dbl>       <dbl> <dbl> <chr>       <chr>           <dbl> <chr>     <chr>    
 1   226           1     1 No          No                  0 60        Very good
 2     3           1     1 No          No                  0 150       Good     
 3   354           1     1 Yes         No                  0 110       Very good
 4   225           4     1 No          No                  0 60        Very good
 5     2           4     1 Yes         No                  0 60        Good     
 6   729           1     1 No          No                  0 65        Good     
 7   228           4     1 No          No                  0 300       0        
 8   180           4     1 No          No                  0 <NA>      Very good
 9   178           1     1 No          No                  0 60        Good     
10   224           7     1 Yes         No                  0 150       Good     
# ℹ 575 more rows
# ℹ 386 more variables: edu_mo <dbl>, edu_fa <dbl>, ideal_no_kids <chr>,
#   no_kids_over5_dead <dbl>, no_kids_1_5_dead <dbl>, no_kids_less1_dead <dbl>,
#   mo_185 <chr>, mo_358 <chr>, mo_360 <chr>, c_wt <dbl>, c_ht <dbl>,
#   ch_27 <chr>, ch_28 <chr>, ch_29 <chr>, ch_30 <chr>, ch_31 <chr>,
#   ch_32 <chr>, ch_33 <chr>, ch_34 <chr>, ch_35 <chr>, ch_36 <chr>,
#   mo_ht <dbl>, mo_bmi <dbl>, hamd_baseline <dbl>, bdq_baseline <dbl>, …
```
…
