Case-Study zur Arbeitslosigkeit in Deutschland
…
.panel1-einlesen_alo-auto[

```r
alo_skip <- read_xlsx(alo_name, sheet = "6", skip = 8)

*alo_skip
```
]
 
.panel2-einlesen_alo-auto[

```
## # A tibble: 11,346 × 32
##    Schlüssel Gemei…¹    `1`   `2`    `3`    `4`    `5`    `6`   `7`   `8`    `9`
##    <chr>     <chr>    <dbl> <dbl>  <dbl>  <dbl>  <dbl>  <dbl> <dbl> <dbl>  <dbl>
##  1 <NA>      Deutsc… 2.53e6 47840 230694 839545 529002 655249 14022 71133 136088
##  2 01        Schles… 9.24e4  2072   9703  30138  18788  18688   437  2297   3471
##  3 01001000  Flensb… 4.51e3   108    566   1120    654    983    18   141    137
##  4 01002000  Kiel, … 1.23e4   220   1100   3306   1842   3103    54   294    559
##  5 01003000  Lübeck… 9.69e3   180    836   2902   1667   2050    41   204    391
##  6 01004000  Neumün… 3.84e3   105    440   1134    685    724    10    45    155
##  7 01051     Dithma… 4.63e3   147    634   1402    826    791    27   141    115
##  8 01051001  Albers… 1.5 e2     5     23     43     23     24     0     4      4
##  9 01051002  Arkebek 5   e0     0      1      1      1      2    NA    NA     NA
## 10 01051003  Averlak 1.5 e1     0      3      4      4      1    NA     0     NA
## # … with 11,336 more rows, 21 more variables: `10` <dbl>, `11` <dbl>,
## #   `12` <dbl>, `13` <dbl>, `14` <dbl>, `15` <dbl>, `16` <dbl>, `17` <dbl>,
## #   `18` <dbl>, `19` <dbl>, `20` <dbl>, `21` <dbl>, `22` <dbl>, `23` <dbl>,
## #   `24` <dbl>, `25` <dbl>, `26` <dbl>, `27` <dbl>, `28` <dbl>, `29` <dbl>,
## #   `30` <dbl>, and abbreviated variable name ¹​Gemeinde
```
…
.panel1-einlesen_alo-auto[

```r
alo_skip <- read_xlsx(alo_name, sheet = "6", skip = 8)

alo_skip %>%
* select(c(`Schlüssel`, Gemeinde, `1`))
```
]
 
.panel2-einlesen_alo-auto[

```
## # A tibble: 11,346 × 3
##    Schlüssel Gemeinde                   `1`
##    <chr>     <chr>                    <dbl>
##  1 <NA>      Deutschland            2532837
##  2 01        Schleswig-Holstein       92434
##  3 01001000  Flensburg, Stadt          4512
##  4 01002000  Kiel, Landeshauptstadt   12345
##  5 01003000  Lübeck, Hansestadt        9692
##  6 01004000  Neumünster, Stadt         3836
##  7 01051     Dithmarschen              4628
##  8 01051001  Albersdorf                 150
##  9 01051002  Arkebek                      5
## 10 01051003  Averlak                     15
## # … with 11,336 more rows
```
…
```r
alo_skip <- read_xlsx(alo_name, sheet = "6", skip = 8)

alo_skip %>%
  select(c(`Schlüssel`, Gemeinde, `1`)) %>%
* rename(Regionalschluessel = `Schlüssel`,
*        alo = `1`)
```
]
 
.panel2-einlesen_alo-auto[

```
## # A tibble: 11,346 × 3
##    Regionalschluessel Gemeinde                   alo
##    <chr>              <chr>                    <dbl>
##  1 <NA>               Deutschland            2532837
##  2 01                 Schleswig-Holstein       92434
##  3 01001000           Flensburg, Stadt          4512
##  4 01002000           Kiel, Landeshauptstadt   12345
##  5 01003000           Lübeck, Hansestadt        9692
##  6 01004000           Neumünster, Stadt         3836
##  7 01051              Dithmarschen              4628
##  8 01051001           Albersdorf                 150
##  9 01051002           Arkebek                      5
## 10 01051003           Averlak                     15
## # … with 11,336 more rows
```
…
```r
alo_skip <- read_xlsx(alo_name, sheet = "6", skip = 8)

alo_skip %>%
  select(c(`Schlüssel`, Gemeinde, `1`)) %>%
  rename(Regionalschluessel = `Schlüssel`,
         alo = `1`) %>%
* filter(!is.na(alo) & Gemeinde!= "Deutschland")
```
]
 
.panel2-einlesen_alo-auto[

```
## # A tibble: 11,343 × 3
##    Regionalschluessel Gemeinde                 alo
##    <chr>              <chr>                  <dbl>
##  1 01                 Schleswig-Holstein     92434
##  2 01001000           Flensburg, Stadt        4512
##  3 01002000           Kiel, Landeshauptstadt 12345
##  4 01003000           Lübeck, Hansestadt      9692
##  5 01004000           Neumünster, Stadt       3836
##  6 01051              Dithmarschen            4628
##  7 01051001           Albersdorf               150
##  8 01051002           Arkebek                    5
##  9 01051003           Averlak                   15
## 10 01051004           Bargenstedt               17
## # … with 11,333 more rows
```
…
---

count: false

.panel1-konsistenz_alo-auto[

```r
*data_alo
```
]
 
.panel2-konsistenz_alo-auto[

```
## # A tibble: 11,343 × 3
##    Regionalschluessel Gemeinde                 alo
##    <chr>              <chr>                  <dbl>
##  1 01                 Schleswig-Holstein     92434
##  2 01001000           Flensburg, Stadt        4512
##  3 01002000           Kiel, Landeshauptstadt 12345
##  4 01003000           Lübeck, Hansestadt      9692
##  5 01004000           Neumünster, Stadt       3836
##  6 01051              Dithmarschen            4628
##  7 01051001           Albersdorf               150
##  8 01051002           Arkebek                    5
##  9 01051003           Averlak                   15
## 10 01051004           Bargenstedt               17
## # … with 11,333 more rows
```
…
---

count: false

.panel1-interne_konsistenz1-auto[

```r
*data_alo
```
]
 
.panel2-interne_konsistenz1-auto[

```
## # A tibble: 11,343 × 3
##    Regionalschluessel Gemeinde                 alo
##    <chr>              <chr>                  <dbl>
##  1 01                 Schleswig-Holstein     92434
##  2 01001000           Flensburg, Stadt        4512
##  3 01002000           Kiel, Landeshauptstadt 12345
##  4 01003000           Lübeck, Hansestadt      9692
##  5 01004000           Neumünster, Stadt       3836
##  6 01051              Dithmarschen            4628
##  7 01051001           Albersdorf               150
##  8 01051002           Arkebek                    5
##  9 01051003           Averlak                   15
## 10 01051004           Bargenstedt               17
## # … with 11,333 more rows
```
…
---
count: false

.panel1-interne_konsistenz1-auto[

```r
data_alo %>%
* filter(nchar(Regionalschluessel) == 8)
```
]
 
.panel2-interne_konsistenz1-auto[

```
## # A tibble: 11,010 × 3
##    Regionalschluessel Gemeinde                 alo
##    <chr>              <chr>                  <dbl>
##  1 01001000           Flensburg, Stadt        4512
##  2 01002000           Kiel, Landeshauptstadt 12345
##  3 01003000           Lübeck, Hansestadt      9692
##  4 01004000           Neumünster, Stadt       3836
##  5 01051001           Albersdorf               150
##  6 01051002           Arkebek                    5
##  7 01051003           Averlak                   15
##  8 01051004           Bargenstedt               17
##  9 01051005           Barkenholm                 3
## 10 01051006           Barlt                     21
## # … with 11,000 more rows
```
…
.panel1-interne_konsistenz1-auto[

```r
data_alo %>%
  filter(nchar(Regionalschluessel) == 8) %>%
* mutate(landkreis = str_extract(Regionalschluessel, "^.{5}"))
```
]
 
.panel2-interne_konsistenz1-auto[

```
## # A tibble: 11,010 × 4
##    Regionalschluessel Gemeinde                 alo landkreis
##    <chr>              <chr>                  <dbl> <chr>    
##  1 01001000           Flensburg, Stadt        4512 01001    
##  2 01002000           Kiel, Landeshauptstadt 12345 01002    
##  3 01003000           Lübeck, Hansestadt      9692 01003    
##  4 01004000           Neumünster, Stadt       3836 01004    
##  5 01051001           Albersdorf               150 01051    
##  6 01051002           Arkebek                    5 01051    
##  7 01051003           Averlak                   15 01051    
##  8 01051004           Bargenstedt               17 01051    
##  9 01051005           Barkenholm                 3 01051    
## 10 01051006           Barlt                     21 01051    
## # … with 11,000 more rows
```
…
.panel1-interne_konsistenz1-auto[

```r
data_alo %>%
  filter(nchar(Regionalschluessel) == 8) %>%
  mutate(landkreis = str_extract(Regionalschluessel, "^.{5}")) %>%
* mutate(bundesland = str_extract(Regionalschluessel, "^.{2}"))
```
]
 
.panel2-interne_konsistenz1-auto[

```
## # A tibble: 11,010 × 5
##    Regionalschluessel Gemeinde                 alo landkreis bundesland
##    <chr>              <chr>                  <dbl> <chr>     <chr>     
##  1 01001000           Flensburg, Stadt        4512 01001     01        
##  2 01002000           Kiel, Landeshauptstadt 12345 01002     01        
##  3 01003000           Lübeck, Hansestadt      9692 01003     01        
##  4 01004000           Neumünster, Stadt       3836 01004     01        
##  5 01051001           Albersdorf               150 01051     01        
##  6 01051002           Arkebek                    5 01051     01        
##  7 01051003           Averlak                   15 01051     01        
##  8 01051004           Bargenstedt               17 01051     01        
##  9 01051005           Barkenholm                 3 01051     01        
## 10 01051006           Barlt                     21 01051     01        
## # … with 11,000 more rows
```
…
---

count: false

.panel1-interne_konsistenz2-auto[

```r
*alo_meta
```
]
 
.panel2-interne_konsistenz2-auto[

```
## # A tibble: 11,010 × 5
##    Regionalschluessel Gemeinde                 alo landkreis bundesland
##    <chr>              <chr>                  <dbl> <chr>     <chr>     
##  1 01001000           Flensburg, Stadt        4512 01001     01        
##  2 01002000           Kiel, Landeshauptstadt 12345 01002     01        
##  3 01003000           Lübeck, Hansestadt      9692 01003     01        
##  4 01004000           Neumünster, Stadt       3836 01004     01        
##  5 01051001           Albersdorf               150 01051     01        
##  6 01051002           Arkebek                    5 01051     01        
##  7 01051003           Averlak                   15 01051     01        
##  8 01051004           Bargenstedt               17 01051     01        
##  9 01051005           Barkenholm                 3 01051     01        
## 10 01051006           Barlt                     21 01051     01        
## # … with 11,000 more rows
```
…
---
count: false

.panel1-interne_konsistenz2-auto[

```r
alo_meta %>%
* group_by(bundesland)
```
]
 
.panel2-interne_konsistenz2-auto[

```
## # A tibble: 11,010 × 5
## # Groups:   bundesland [16]
##    Regionalschluessel Gemeinde                 alo landkreis bundesland
##    <chr>              <chr>                  <dbl> <chr>     <chr>     
##  1 01001000           Flensburg, Stadt        4512 01001     01        
##  2 01002000           Kiel, Landeshauptstadt 12345 01002     01        
##  3 01003000           Lübeck, Hansestadt      9692 01003     01        
##  4 01004000           Neumünster, Stadt       3836 01004     01        
##  5 01051001           Albersdorf               150 01051     01        
##  6 01051002           Arkebek                    5 01051     01        
##  7 01051003           Averlak                   15 01051     01        
##  8 01051004           Bargenstedt               17 01051     01        
##  9 01051005           Barkenholm                 3 01051     01        
## 10 01051006           Barlt                     21 01051     01        
## # … with 11,000 more rows
```
…
---

count: false

.panel1-interne_konsistenz3-auto[

```r
*alo_meta
```
]
 
.panel2-interne_konsistenz3-auto[

```
## # A tibble: 11,010 × 5
##    Regionalschluessel Gemeinde                 alo landkreis bundesland
##    <chr>              <chr>                  <dbl> <chr>     <chr>     
##  1 01001000           Flensburg, Stadt        4512 01001     01        
##  2 01002000           Kiel, Landeshauptstadt 12345 01002     01        
##  3 01003000           Lübeck, Hansestadt      9692 01003     01        
##  4 01004000           Neumünster, Stadt       3836 01004     01        
##  5 01051001           Albersdorf               150 01051     01        
##  6 01051002           Arkebek                    5 01051     01        
##  7 01051003           Averlak                   15 01051     01        
##  8 01051004           Bargenstedt               17 01051     01        
##  9 01051005           Barkenholm                 3 01051     01        
## 10 01051006           Barlt                     21 01051     01        
## # … with 11,000 more rows
```
…
---
count: false

.panel1-interne_konsistenz3-auto[

```r
alo_meta %>%
* group_by(landkreis)
```
]
 
.panel2-interne_konsistenz3-auto[

```
## # A tibble: 11,010 × 5
## # Groups:   landkreis [401]
##    Regionalschluessel Gemeinde                 alo landkreis bundesland
##    <chr>              <chr>                  <dbl> <chr>     <chr>     
##  1 01001000           Flensburg, Stadt        4512 01001     01        
##  2 01002000           Kiel, Landeshauptstadt 12345 01002     01        
##  3 01003000           Lübeck, Hansestadt      9692 01003     01        
##  4 01004000           Neumünster, Stadt       3836 01004     01        
##  5 01051001           Albersdorf               150 01051     01        
##  6 01051002           Arkebek                    5 01051     01        
##  7 01051003           Averlak                   15 01051     01        
##  8 01051004           Bargenstedt               17 01051     01        
##  9 01051005           Barkenholm                 3 01051     01        
## 10 01051006           Barlt                     21 01051     01        
## # … with 11,000 more rows
```
…
.panel1-interne_konsistenz3-auto[

```r
alo_meta %>%
  group_by(landkreis) %>%
* summarise(total_alo = sum(alo))
```
]
 
.panel2-interne_konsistenz3-auto[

```
## # A tibble: 401 × 2
##    landkreis total_alo
##    <chr>         <dbl>
##  1 01001          4512
##  2 01002         12345
##  3 01003          9692
##  4 01004          3836
##  5 01051          4632
##  6 01053          5592
##  7 01054          5657
##  8 01055          5748
##  9 01056          8599
## 10 01057          3264
## # … with 391 more rows
```
…
.panel1-interne_konsistenz3-auto[

```r
alo_meta %>%
  group_by(landkreis) %>%
  summarise(total_alo = sum(alo)) %>%
* rename(Regionalschluessel = landkreis)
```
]
 
.panel2-interne_konsistenz3-auto[

```
## # A tibble: 401 × 2
##    Regionalschluessel total_alo
##    <chr>                  <dbl>
##  1 01001                   4512
##  2 01002                  12345
##  3 01003                   9692
##  4 01004                   3836
##  5 01051                   4632
##  6 01053                   5592
##  7 01054                   5657
##  8 01055                   5748
##  9 01056                   8599
## 10 01057                   3264
## # … with 391 more rows
```
…
count: false

.panel1-schulden_einlesen-auto[

```r
# Einlesen des Tabellenblattes "SH" ohne die ersten 5 Zeilen und nur die Spalten 1-6
*read_xlsx("../case-study/data/Schulden_2017.xlsx", sheet = "SH", skip = 5)[1:6]
```
]
 
.panel2-schulden_einlesen-auto[

```
## # A tibble: 1,312 × 6
##    `Regional-\r\nschlüssel` Gemeinde/Gemeindev…¹ Verwa…² Einwo…³ Schul…⁴ Schul…⁵
##    <chr>                    <chr>                <chr>   <chr>   <chr>   <chr>  
##  1 <NA>                     <NA>                 <NA>    <NA>    <NA>    <NA>   
##  2 <NA>                     <NA>                 <NA>    <NA>    <NA>    <NA>   
##  3 <NA>                     <NA>                 <NA>    <NA>    <NA>    <NA>   
##  4 <NA>                     <NA>                 <NA>    <NA>    EUR     <NA>   
##  5 <NA>                     <NA>                 <NA>    <NA>    1       2      
##  6 010010000000             Flensburg, Stadt     kreisf… 87770   508281… 5791.06
##  7 010020000000             Kiel, Landeshauptst… kreisf… 247135  948848… 3839.39
##  8 010030000000             Lübeck, Hansestadt   kreisf… 216739  120662… 5567.16
##  9 010040000000             Neumünster, Stadt    kreisf… 78759   426019… 5409.15
## 10 01051                    Kreisverwaltung Dit… Kreisv… {133 6… 651790… 487.56 
## # … with 1,302 more rows, and abbreviated variable names
## #   ¹​`Gemeinde/Gemeindeverband`, ²​Verwaltungsform,
## #   ³​`Einwohner/in\r\nam\r\n30.06.2017`,
## #   ⁴​`Schulden des öffentlichen Bereichs insgesamt`,
## #   ⁵​`Schulden je \r\nEinwohner/in`
```
…
# Umbenennen der ersten 6 Spalten
colnames(schulden_individuell) <- c("Regionalschluessel", "Gemeinde",
                                    "Verwaltungsform", "Einwohner", "Schulden_gesamt", "Schulden_pro_kopf")

# Zusätzliche Spalte hinzufügen mit dem Namen des Tabellenblattes
schulden_individuell$Bundesland <- "SH"

*schulden_individuell
```
]
 
.panel2-schulden_einlesen-auto[

```
## # A tibble: 1,312 × 7
##    Regionalschluessel Gemeinde           Verwa…¹ Einwo…² Schul…³ Schul…⁴ Bunde…⁵
##    <chr>              <chr>              <chr>   <chr>   <chr>   <chr>   <chr>  
##  1 <NA>               <NA>               <NA>    <NA>    <NA>    <NA>    SH     
##  2 <NA>               <NA>               <NA>    <NA>    <NA>    <NA>    SH     
##  3 <NA>               <NA>               <NA>    <NA>    <NA>    <NA>    SH     
##  4 <NA>               <NA>               <NA>    <NA>    EUR     <NA>    SH     
##  5 <NA>               <NA>               <NA>    <NA>    1       2       SH     
##  6 010010000000       Flensburg, Stadt   kreisf… 87770   508281… 5791.06 SH     
##  7 010020000000       Kiel, Landeshaupt… kreisf… 247135  948848… 3839.39 SH     
##  8 010030000000       Lübeck, Hansestadt kreisf… 216739  120662… 5567.16 SH     
##  9 010040000000       Neumünster, Stadt  kreisf… 78759   426019… 5409.15 SH     
## 10 01051              Kreisverwaltung D… Kreisv… {133 6… 651790… 487.56  SH     
## # … with 1,302 more rows, and abbreviated variable names ¹​Verwaltungsform,
## #   ²​Einwohner, ³​Schulden_gesamt, ⁴​Schulden_pro_kopf, ⁵​Bundesland
```
…
*schulden_individuell
```
]
 
.panel2-for_loop-auto[

```
## [1] 12
```

```
## # A tibble: 25,796 × 7
##    Regionalschluessel Gemeinde           Verwa…¹ Einwo…² Schul…³ Schul…⁴ Bunde…⁵
##    <chr>              <chr>              <chr>   <chr>   <chr>   <chr>   <chr>  
##  1 <NA>               <NA>               <NA>    <NA>    <NA>    <NA>    SH     
##  2 <NA>               <NA>               <NA>    <NA>    <NA>    <NA>    SH     
##  3 <NA>               <NA>               <NA>    <NA>    <NA>    <NA>    SH     
##  4 <NA>               <NA>               <NA>    <NA>    EUR     <NA>    SH     
##  5 <NA>               <NA>               <NA>    <NA>    1       2       SH     
##  6 010010000000       Flensburg, Stadt   kreisf… 87770   508281… 5791.06 SH     
##  7 010020000000       Kiel, Landeshaupt… kreisf… 247135  948848… 3839.39 SH     
##  8 010030000000       Lübeck, Hansestadt kreisf… 216739  120662… 5567.16 SH     
##  9 010040000000       Neumünster, Stadt  kreisf… 78759   426019… 5409.15 SH     
## 10 01051              Kreisverwaltung D… Kreisv… {133 6… 651790… 487.56  SH     
## # … with 25,786 more rows, and abbreviated variable names ¹​Verwaltungsform,
## #   ²​Einwohner, ³​Schulden_gesamt, ⁴​Schulden_pro_kopf, ⁵​Bundesland
```
…
