Case-Study zur Arbeitslosigkeit in Deutschland
…
## Die Arbeitslosenquote auf Bundeslandebene

count: false

.panel1-bula_data-auto[

```r
*gesamtdaten
```
]
 
.panel2-bula_data-auto[

```
## # A tibble: 401 × 12
##    Regionalsch…¹ total…² landk…³ bunde…⁴ bunde…⁵ Schul…⁶ Einwo…⁷ Schul…⁸     bip
##    <chr>           <dbl> <chr>   <chr>   <chr>     <dbl>   <dbl>   <dbl>   <dbl>
##  1 01001            4512 Flensb… 01      Schles…   5791.   87770  5.08e8 3.67e 9
##  2 01002           12345 Kiel    01      Schles…   3839.  247135  9.49e8 1.14e10
##  3 01003            9692 Lübeck  01      Schles…   5567.  216739  1.21e9 9.16e 9
##  4 01004            3836 Neumün… 01      Schles…   5409.   78759  4.26e8 3.34e 9
##  5 01051            4632 Dithma… 01      Schles…   1670.  133684  2.23e8 4.47e 9
##  6 01053            5592 Herzog… 01      Schles…   1293.  195677  2.53e8 4.50e 9
##  7 01054            5657 Nordfr… 01      Schles…   2624.  165642  4.35e8 5.74e 9
##  8 01055            5748 Osthol… 01      Schles…   1890.  200931  3.80e8 5.27e 9
##  9 01056            8599 Pinneb… 01      Schles…   2225.  311713  6.94e8 9.07e 9
## 10 01057            3264 Plön    01      Schles…   1532.  128763  1.97e8 2.55e 9
## # … with 391 more rows, 3 more variables: bip_pro_kopf <dbl>, erw <dbl>,
## #   alo_quote <dbl>, and abbreviated variable names ¹​Regionalschluessel,
## #   ²​total_alo, ³​landkreis_name, ⁴​bundesland, ⁵​bundesland_name,
## #   ⁶​Schulden_pro_kopf_lk, ⁷​Einwohner, ⁸​Schulden_gesamt
```
…
---
count: false

.panel1-bula_data-auto[

```r
gesamtdaten %>%
* group_by( bundesland_name )
```
]
 
.panel2-bula_data-auto[

```
## # A tibble: 401 × 12
## # Groups:   bundesland_name [16]
##    Regionalsch…¹ total…² landk…³ bunde…⁴ bunde…⁵ Schul…⁶ Einwo…⁷ Schul…⁸     bip
##    <chr>           <dbl> <chr>   <chr>   <chr>     <dbl>   <dbl>   <dbl>   <dbl>
##  1 01001            4512 Flensb… 01      Schles…   5791.   87770  5.08e8 3.67e 9
##  2 01002           12345 Kiel    01      Schles…   3839.  247135  9.49e8 1.14e10
##  3 01003            9692 Lübeck  01      Schles…   5567.  216739  1.21e9 9.16e 9
##  4 01004            3836 Neumün… 01      Schles…   5409.   78759  4.26e8 3.34e 9
##  5 01051            4632 Dithma… 01      Schles…   1670.  133684  2.23e8 4.47e 9
##  6 01053            5592 Herzog… 01      Schles…   1293.  195677  2.53e8 4.50e 9
##  7 01054            5657 Nordfr… 01      Schles…   2624.  165642  4.35e8 5.74e 9
##  8 01055            5748 Osthol… 01      Schles…   1890.  200931  3.80e8 5.27e 9
##  9 01056            8599 Pinneb… 01      Schles…   2225.  311713  6.94e8 9.07e 9
## 10 01057            3264 Plön    01      Schles…   1532.  128763  1.97e8 2.55e 9
## # … with 391 more rows, 3 more variables: bip_pro_kopf <dbl>, erw <dbl>,
## #   alo_quote <dbl>, and abbreviated variable names ¹​Regionalschluessel,
## #   ²​total_alo, ³​landkreis_name, ⁴​bundesland, ⁵​bundesland_name,
## #   ⁶​Schulden_pro_kopf_lk, ⁷​Einwohner, ⁸​Schulden_gesamt
```
…
---

count: false

.panel1-ost-auto[

```r
*gesamtdaten
```
]
 
.panel2-ost-auto[

```
## # A tibble: 401 × 12
##    Regionalsch…¹ total…² landk…³ bunde…⁴ bunde…⁵ Schul…⁶ Einwo…⁷ Schul…⁸     bip
##    <chr>           <dbl> <chr>   <chr>   <chr>     <dbl>   <dbl>   <dbl>   <dbl>
##  1 01001            4512 Flensb… 01      Schles…   5791.   87770  5.08e8 3.67e 9
##  2 01002           12345 Kiel    01      Schles…   3839.  247135  9.49e8 1.14e10
##  3 01003            9692 Lübeck  01      Schles…   5567.  216739  1.21e9 9.16e 9
##  4 01004            3836 Neumün… 01      Schles…   5409.   78759  4.26e8 3.34e 9
##  5 01051            4632 Dithma… 01      Schles…   1670.  133684  2.23e8 4.47e 9
##  6 01053            5592 Herzog… 01      Schles…   1293.  195677  2.53e8 4.50e 9
##  7 01054            5657 Nordfr… 01      Schles…   2624.  165642  4.35e8 5.74e 9
##  8 01055            5748 Osthol… 01      Schles…   1890.  200931  3.80e8 5.27e 9
##  9 01056            8599 Pinneb… 01      Schles…   2225.  311713  6.94e8 9.07e 9
## 10 01057            3264 Plön    01      Schles…   1532.  128763  1.97e8 2.55e 9
## # … with 391 more rows, 3 more variables: bip_pro_kopf <dbl>, erw <dbl>,
## #   alo_quote <dbl>, and abbreviated variable names ¹​Regionalschluessel,
## #   ²​total_alo, ³​landkreis_name, ⁴​bundesland, ⁵​bundesland_name,
## #   ⁶​Schulden_pro_kopf_lk, ⁷​Einwohner, ⁸​Schulden_gesamt
```
…
.panel1-ost-auto[

```r
gesamtdaten %>%
* mutate( ost = as.factor(ifelse(bundesland_name %in% c("Brandenburg", "Mecklenburg-Vorpommern", "Sachsen", "Sachsen-Anhalt", "Thüringen"), 1, 0)),
*         ost_name = ifelse(ost == 1, "Ostdeutschland", "Westdeutschland"))
```
]
 
.panel2-ost-auto[

```
## # A tibble: 401 × 14
##    Regionalsch…¹ total…² landk…³ bunde…⁴ bunde…⁵ Schul…⁶ Einwo…⁷ Schul…⁸     bip
##    <chr>           <dbl> <chr>   <chr>   <chr>     <dbl>   <dbl>   <dbl>   <dbl>
##  1 01001            4512 Flensb… 01      Schles…   5791.   87770  5.08e8 3.67e 9
##  2 01002           12345 Kiel    01      Schles…   3839.  247135  9.49e8 1.14e10
##  3 01003            9692 Lübeck  01      Schles…   5567.  216739  1.21e9 9.16e 9
##  4 01004            3836 Neumün… 01      Schles…   5409.   78759  4.26e8 3.34e 9
##  5 01051            4632 Dithma… 01      Schles…   1670.  133684  2.23e8 4.47e 9
##  6 01053            5592 Herzog… 01      Schles…   1293.  195677  2.53e8 4.50e 9
##  7 01054            5657 Nordfr… 01      Schles…   2624.  165642  4.35e8 5.74e 9
##  8 01055            5748 Osthol… 01      Schles…   1890.  200931  3.80e8 5.27e 9
##  9 01056            8599 Pinneb… 01      Schles…   2225.  311713  6.94e8 9.07e 9
## 10 01057            3264 Plön    01      Schles…   1532.  128763  1.97e8 2.55e 9
## # … with 391 more rows, 5 more variables: bip_pro_kopf <dbl>, erw <dbl>,
## #   alo_quote <dbl>, ost <fct>, ost_name <chr>, and abbreviated variable names
## #   ¹​Regionalschluessel, ²​total_alo, ³​landkreis_name, ⁴​bundesland,
## #   ⁵​bundesland_name, ⁶​Schulden_pro_kopf_lk, ⁷​Einwohner, ⁸​Schulden_gesamt
```
…
---

count: false

.panel1-ost_deskriptiv-auto[

```r
*gesamtdaten
```
]
 
.panel2-ost_deskriptiv-auto[

```
## # A tibble: 401 × 14
##    Regionalsch…¹ total…² landk…³ bunde…⁴ bunde…⁵ Schul…⁶ Einwo…⁷ Schul…⁸     bip
##    <chr>           <dbl> <chr>   <chr>   <chr>     <dbl>   <dbl>   <dbl>   <dbl>
##  1 01001            4512 Flensb… 01      Schles…   5791.   87770  5.08e8 3.67e 9
##  2 01002           12345 Kiel    01      Schles…   3839.  247135  9.49e8 1.14e10
##  3 01003            9692 Lübeck  01      Schles…   5567.  216739  1.21e9 9.16e 9
##  4 01004            3836 Neumün… 01      Schles…   5409.   78759  4.26e8 3.34e 9
##  5 01051            4632 Dithma… 01      Schles…   1670.  133684  2.23e8 4.47e 9
##  6 01053            5592 Herzog… 01      Schles…   1293.  195677  2.53e8 4.50e 9
##  7 01054            5657 Nordfr… 01      Schles…   2624.  165642  4.35e8 5.74e 9
##  8 01055            5748 Osthol… 01      Schles…   1890.  200931  3.80e8 5.27e 9
##  9 01056            8599 Pinneb… 01      Schles…   2225.  311713  6.94e8 9.07e 9
## 10 01057            3264 Plön    01      Schles…   1532.  128763  1.97e8 2.55e 9
## # … with 391 more rows, 5 more variables: bip_pro_kopf <dbl>, erw <dbl>,
## #   alo_quote <dbl>, ost <fct>, ost_name <chr>, and abbreviated variable names
## #   ¹​Regionalschluessel, ²​total_alo, ³​landkreis_name, ⁴​bundesland,
## #   ⁵​bundesland_name, ⁶​Schulden_pro_kopf_lk, ⁷​Einwohner, ⁸​Schulden_gesamt
```
…
---
count: false

.panel1-ost_deskriptiv-auto[

```r
gesamtdaten %>%
* group_by(ost_name)
```
]
 
.panel2-ost_deskriptiv-auto[

```
## # A tibble: 401 × 14
## # Groups:   ost_name [2]
##    Regionalsch…¹ total…² landk…³ bunde…⁴ bunde…⁵ Schul…⁶ Einwo…⁷ Schul…⁸     bip
##    <chr>           <dbl> <chr>   <chr>   <chr>     <dbl>   <dbl>   <dbl>   <dbl>
##  1 01001            4512 Flensb… 01      Schles…   5791.   87770  5.08e8 3.67e 9
##  2 01002           12345 Kiel    01      Schles…   3839.  247135  9.49e8 1.14e10
##  3 01003            9692 Lübeck  01      Schles…   5567.  216739  1.21e9 9.16e 9
##  4 01004            3836 Neumün… 01      Schles…   5409.   78759  4.26e8 3.34e 9
##  5 01051            4632 Dithma… 01      Schles…   1670.  133684  2.23e8 4.47e 9
##  6 01053            5592 Herzog… 01      Schles…   1293.  195677  2.53e8 4.50e 9
##  7 01054            5657 Nordfr… 01      Schles…   2624.  165642  4.35e8 5.74e 9
##  8 01055            5748 Osthol… 01      Schles…   1890.  200931  3.80e8 5.27e 9
##  9 01056            8599 Pinneb… 01      Schles…   2225.  311713  6.94e8 9.07e 9
## 10 01057            3264 Plön    01      Schles…   1532.  128763  1.97e8 2.55e 9
## # … with 391 more rows, 5 more variables: bip_pro_kopf <dbl>, erw <dbl>,
## #   alo_quote <dbl>, ost <fct>, ost_name <chr>, and abbreviated variable names
## #   ¹​Regionalschluessel, ²​total_alo, ³​landkreis_name, ⁴​bundesland,
## #   ⁵​bundesland_name, ⁶​Schulden_pro_kopf_lk, ⁷​Einwohner, ⁸​Schulden_gesamt
```
…
---

count: false

.panel1-alo_schulden_bip-auto[

```r
*gesamtdaten
```
]
 
.panel2-alo_schulden_bip-auto[

```
## # A tibble: 401 × 14
##    Regionalsch…¹ total…² landk…³ bunde…⁴ bunde…⁵ Schul…⁶ Einwo…⁷ Schul…⁸     bip
##    <chr>           <dbl> <chr>   <chr>   <chr>     <dbl>   <dbl>   <dbl>   <dbl>
##  1 01001            4512 Flensb… 01      Schles…   5791.   87770  5.08e8 3.67e 9
##  2 01002           12345 Kiel    01      Schles…   3839.  247135  9.49e8 1.14e10
##  3 01003            9692 Lübeck  01      Schles…   5567.  216739  1.21e9 9.16e 9
##  4 01004            3836 Neumün… 01      Schles…   5409.   78759  4.26e8 3.34e 9
##  5 01051            4632 Dithma… 01      Schles…   1670.  133684  2.23e8 4.47e 9
##  6 01053            5592 Herzog… 01      Schles…   1293.  195677  2.53e8 4.50e 9
##  7 01054            5657 Nordfr… 01      Schles…   2624.  165642  4.35e8 5.74e 9
##  8 01055            5748 Osthol… 01      Schles…   1890.  200931  3.80e8 5.27e 9
##  9 01056            8599 Pinneb… 01      Schles…   2225.  311713  6.94e8 9.07e 9
## 10 01057            3264 Plön    01      Schles…   1532.  128763  1.97e8 2.55e 9
## # … with 391 more rows, 5 more variables: bip_pro_kopf <dbl>, erw <dbl>,
## #   alo_quote <dbl>, ost <fct>, ost_name <chr>, and abbreviated variable names
## #   ¹​Regionalschluessel, ²​total_alo, ³​landkreis_name, ⁴​bundesland,
## #   ⁵​bundesland_name, ⁶​Schulden_pro_kopf_lk, ⁷​Einwohner, ⁸​Schulden_gesamt
```
…
---
count: false

.panel1-alo_schulden_bip-auto[

```r
gesamtdaten %>%
* group_by( bundesland_name )
```
]
 
.panel2-alo_schulden_bip-auto[

```
## # A tibble: 401 × 14
## # Groups:   bundesland_name [16]
##    Regionalsch…¹ total…² landk…³ bunde…⁴ bunde…⁵ Schul…⁶ Einwo…⁷ Schul…⁸     bip
##    <chr>           <dbl> <chr>   <chr>   <chr>     <dbl>   <dbl>   <dbl>   <dbl>
##  1 01001            4512 Flensb… 01      Schles…   5791.   87770  5.08e8 3.67e 9
##  2 01002           12345 Kiel    01      Schles…   3839.  247135  9.49e8 1.14e10
##  3 01003            9692 Lübeck  01      Schles…   5567.  216739  1.21e9 9.16e 9
##  4 01004            3836 Neumün… 01      Schles…   5409.   78759  4.26e8 3.34e 9
##  5 01051            4632 Dithma… 01      Schles…   1670.  133684  2.23e8 4.47e 9
##  6 01053            5592 Herzog… 01      Schles…   1293.  195677  2.53e8 4.50e 9
##  7 01054            5657 Nordfr… 01      Schles…   2624.  165642  4.35e8 5.74e 9
##  8 01055            5748 Osthol… 01      Schles…   1890.  200931  3.80e8 5.27e 9
##  9 01056            8599 Pinneb… 01      Schles…   2225.  311713  6.94e8 9.07e 9
## 10 01057            3264 Plön    01      Schles…   1532.  128763  1.97e8 2.55e 9
## # … with 391 more rows, 5 more variables: bip_pro_kopf <dbl>, erw <dbl>,
## #   alo_quote <dbl>, ost <fct>, ost_name <chr>, and abbreviated variable names
## #   ¹​Regionalschluessel, ²​total_alo, ³​landkreis_name, ⁴​bundesland,
## #   ⁵​bundesland_name, ⁶​Schulden_pro_kopf_lk, ⁷​Einwohner, ⁸​Schulden_gesamt
```
…
---

count: false

.panel1-alo_jitter-auto[

```r
*gesamtdaten
```
]
 
.panel2-alo_jitter-auto[

```
## # A tibble: 401 × 14
##    Regionalsch…¹ total…² landk…³ bunde…⁴ bunde…⁵ Schul…⁶ Einwo…⁷ Schul…⁸     bip
##    <chr>           <dbl> <chr>   <chr>   <chr>     <dbl>   <dbl>   <dbl>   <dbl>
##  1 01001            4512 Flensb… 01      Schles…   5791.   87770  5.08e8 3.67e 9
##  2 01002           12345 Kiel    01      Schles…   3839.  247135  9.49e8 1.14e10
##  3 01003            9692 Lübeck  01      Schles…   5567.  216739  1.21e9 9.16e 9
##  4 01004            3836 Neumün… 01      Schles…   5409.   78759  4.26e8 3.34e 9
##  5 01051            4632 Dithma… 01      Schles…   1670.  133684  2.23e8 4.47e 9
##  6 01053            5592 Herzog… 01      Schles…   1293.  195677  2.53e8 4.50e 9
##  7 01054            5657 Nordfr… 01      Schles…   2624.  165642  4.35e8 5.74e 9
##  8 01055            5748 Osthol… 01      Schles…   1890.  200931  3.80e8 5.27e 9
##  9 01056            8599 Pinneb… 01      Schles…   2225.  311713  6.94e8 9.07e 9
## 10 01057            3264 Plön    01      Schles…   1532.  128763  1.97e8 2.55e 9
## # … with 391 more rows, 5 more variables: bip_pro_kopf <dbl>, erw <dbl>,
## #   alo_quote <dbl>, ost <fct>, ost_name <chr>, and abbreviated variable names
## #   ¹​Regionalschluessel, ²​total_alo, ³​landkreis_name, ⁴​bundesland,
## #   ⁵​bundesland_name, ⁶​Schulden_pro_kopf_lk, ⁷​Einwohner, ⁸​Schulden_gesamt
```
…
---
count: false

.panel1-alo_jitter-auto[

```r
gesamtdaten %>%
* select(alo_quote, landkreis_name, bundesland_name, ost_name)
```
]
 
.panel2-alo_jitter-auto[

```
## # A tibble: 401 × 4
##    alo_quote landkreis_name      bundesland_name    ost_name       
##        <dbl> <chr>               <chr>              <chr>          
##  1      7.01 Flensburg           Schleswig-Holstein Westdeutschland
##  2      6.72 Kiel                Schleswig-Holstein Westdeutschland
##  3      7.04 Lübeck              Schleswig-Holstein Westdeutschland
##  4      6.82 Neumünster          Schleswig-Holstein Westdeutschland
##  5      7.11 Dithmarschen        Schleswig-Holstein Westdeutschland
##  6      7.43 Herzogtum Lauenburg Schleswig-Holstein Westdeutschland
##  7      5.90 Nordfriesland       Schleswig-Holstein Westdeutschland
##  8      5.97 Ostholstein         Schleswig-Holstein Westdeutschland
##  9      6.23 Pinneberg           Schleswig-Holstein Westdeutschland
## 10      6.92 Plön                Schleswig-Holstein Westdeutschland
## # … with 391 more rows
```
…
.panel1-alo_jitter-auto[

```r
gesamtdaten %>%
  select(alo_quote, landkreis_name, bundesland_name, ost_name) %>%
* mutate(baden_wuerttemberg = as.factor(ifelse(bundesland_name == "Baden-Württemberg", 1, 0)))
```
]
 
.panel2-alo_jitter-auto[

```
## # A tibble: 401 × 5
##    alo_quote landkreis_name      bundesland_name    ost_name        baden_wuer…¹
##        <dbl> <chr>               <chr>              <chr>           <fct>       
##  1      7.01 Flensburg           Schleswig-Holstein Westdeutschland 0           
##  2      6.72 Kiel                Schleswig-Holstein Westdeutschland 0           
##  3      7.04 Lübeck              Schleswig-Holstein Westdeutschland 0           
##  4      6.82 Neumünster          Schleswig-Holstein Westdeutschland 0           
##  5      7.11 Dithmarschen        Schleswig-Holstein Westdeutschland 0           
##  6      7.43 Herzogtum Lauenburg Schleswig-Holstein Westdeutschland 0           
##  7      5.90 Nordfriesland       Schleswig-Holstein Westdeutschland 0           
##  8      5.97 Ostholstein         Schleswig-Holstein Westdeutschland 0           
##  9      6.23 Pinneberg           Schleswig-Holstein Westdeutschland 0           
## 10      6.92 Plön                Schleswig-Holstein Westdeutschland 0           
## # … with 391 more rows, and abbreviated variable name ¹​baden_wuerttemberg
```
…
---
count: false

.panel1-bip1-auto[

```r
options(scipen = 5)
*bip_zeitreihe_namen
```
]
 
.panel2-bip1-auto[

```
## # A tibble: 11,172 × 8
##    Regionalschluessel  Jahr         bip einwoh…¹ bip_p…² bunde…³ landk…⁴ ost_n…⁵
##    <chr>              <dbl>       <dbl>    <dbl>   <dbl> <chr>   <chr>   <chr>  
##  1 08111               1992 32946884000   593628  55501. Baden-… Stuttg… Westde…
##  2 08115               1992 12090930000   343190  35231. Baden-… Böblin… Westde…
##  3 08116               1992 12275605000   487370  25187. Baden-… Esslin… Westde…
##  4 08117               1992  5062037000   248688  20355. Baden-… Göppin… Westde…
##  5 08118               1992 11714160000   475248  24649. Baden-… Ludwig… Westde…
##  6 08119               1992  8500405000   389670  21814. Baden-… Rems-M… Westde…
##  7 08121               1992  4219259000   118566  35586. Baden-… Heilbr… Westde…
##  8 08125               1992  6073525000   283163  21449. Baden-… Heilbr… Westde…
##  9 08126               1992  2273334000    96072  23663. Baden-… Hohenl… Westde…
## 10 08127               1992  3432175000   169617  20235. Baden-… Schwäb… Westde…
## # … with 11,162 more rows, and abbreviated variable names ¹​einwohner,
## #   ²​bip_pro_kopf, ³​bundesland_name, ⁴​landkreis_name, ⁵​ost_name
```
…
.panel1-bip1-auto[

```r
options(scipen = 5)
bip_zeitreihe_namen %>%
* filter( Jahr >= 2000 )
```
]
 
.panel2-bip1-auto[

```
## # A tibble: 8,379 × 8
##    Regionalschluessel  Jahr         bip einwoh…¹ bip_p…² bunde…³ landk…⁴ ost_n…⁵
##    <chr>              <dbl>       <dbl>    <dbl>   <dbl> <chr>   <chr>   <chr>  
##  1 08111               2000 35273886000   571528  61719. Baden-… Stuttg… Westde…
##  2 08115               2000 13867882000   359476  38578. Baden-… Böblin… Westde…
##  3 08116               2000 14404617000   492914  29223. Baden-… Esslin… Westde…
##  4 08117               2000  6000420000   253970  23626. Baden-… Göppin… Westde…
##  5 08118               2000 14657540000   492014  29791. Baden-… Ludwig… Westde…
##  6 08119               2000 10367512000   403830  25673. Baden-… Rems-M… Westde…
##  7 08121               2000  5273634000   115590  45624. Baden-… Heilbr… Westde…
##  8 08125               2000  8453750000   316406  26718. Baden-… Heilbr… Westde…
##  9 08126               2000  3083030000   106494  28950. Baden-… Hohenl… Westde…
## 10 08127               2000  4503834000   184222  24448. Baden-… Schwäb… Westde…
## # … with 8,369 more rows, and abbreviated variable names ¹​einwohner,
## #   ²​bip_pro_kopf, ³​bundesland_name, ⁴​landkreis_name, ⁵​ost_name
```
…
.panel1-bip1-auto[

```r
options(scipen = 5)
bip_zeitreihe_namen %>%
  filter( Jahr >= 2000 ) %>%
* group_by(ost_name, Jahr)
```
]
 
.panel2-bip1-auto[

```
## # A tibble: 8,379 × 8
## # Groups:   ost_name, Jahr [42]
##    Regionalschluessel  Jahr         bip einwoh…¹ bip_p…² bunde…³ landk…⁴ ost_n…⁵
##    <chr>              <dbl>       <dbl>    <dbl>   <dbl> <chr>   <chr>   <chr>  
##  1 08111               2000 35273886000   571528  61719. Baden-… Stuttg… Westde…
##  2 08115               2000 13867882000   359476  38578. Baden-… Böblin… Westde…
##  3 08116               2000 14404617000   492914  29223. Baden-… Esslin… Westde…
##  4 08117               2000  6000420000   253970  23626. Baden-… Göppin… Westde…
##  5 08118               2000 14657540000   492014  29791. Baden-… Ludwig… Westde…
##  6 08119               2000 10367512000   403830  25673. Baden-… Rems-M… Westde…
##  7 08121               2000  5273634000   115590  45624. Baden-… Heilbr… Westde…
##  8 08125               2000  8453750000   316406  26718. Baden-… Heilbr… Westde…
##  9 08126               2000  3083030000   106494  28950. Baden-… Hohenl… Westde…
## 10 08127               2000  4503834000   184222  24448. Baden-… Schwäb… Westde…
## # … with 8,369 more rows, and abbreviated variable names ¹​einwohner,
## #   ²​bip_pro_kopf, ³​bundesland_name, ⁴​landkreis_name, ⁵​ost_name
```
…
